{
  "request":
    {
      "urlPattern": "/user/login",
      "method": "POST",
      "bodyPatterns" : [{
        "equalToJson" : "{\n  \"username\" : \"testuser\",\n  \"password\" : \"123\"\n}"
      }]
    },

  "response":
    {
      "status": 200,
      "headers":
        {
          "Content-Type" : "application/json"
        },
      "bodyFileName": "shopping-cart/login-success-response.json"
    }
}
